{
  "project_info": {
    "project_number": "917994512361",
    "project_id": "firebase-meet-me-in-the-middle"
  },
  "client": [
    {
      "client_info": {
        "mobilesdk_app_id": "1:917994512361:android:8c4db2755f3ca85a",
        "android_client_info": {
          "package_name": "com.mmitm.liz.placestest"
        }
      },
      "oauth_client": [],
      "api_key": [
        {
          "current_key": "AIzaSyBPSkjdbYDituUy0k53K8gaxvRhLW2-iHc"
        }
      ],
      "services": {
        "analytics_service": {
          "status": 1
        },
        "appinvite_service": {
          "status": 1,
          "other_platform_oauth_client": []
        },
        "ads_service": {
          "status": 1
        }
      }
    }
  ],
  "configuration_version": "1"
}